1 数据可视化 – R 数据科学 2e （中文版）
…
变量 (variable) 是你可以测量的数量、质量或属性。

值 (value) 是你在测量时变量的状态。变量的值可能在每次测量中发生变化。

观测 (observation) 是在相似条件下进行的一组测量（通常你会在同一时间对同一对象进行一次观测中的所有测量）。一个观测会包含多个值，每个值都与一个不同的变量相关联。我们有时会将一个观测称为一个数据点。

表格数据 (tabular data) 是一组值，每个值都与一个变量和一个观测相关联。如果每个值都放在自己的“单元格”中，每个变量都在自己的列中，每个观测都在自己的行中，那么表格数据就是整洁 (tidy) 的。

在此背景下，一个变量指的是所有企鹅的一个属性，而一个观测指的是一只企鹅的所有属性。

在控制台中输入数据框的名称，R 将打印其内容的预览。注意，此预览的顶部写着 tibble。在 tidyverse 中，我们使用一种特殊的数据框，称为 tibble，你很快就会学到更多关于它的知识。

penguins
#> # A tibble: 344 × 8
#>   species island    bill_length_mm bill_depth_mm flipper_length_mm
#>   <fct>   <fct>              <dbl>         <dbl>             <int>
#> 1 Adelie  Torgersen           39.1          18.7               181
#> 2 Adelie  Torgersen           39.5          17.4               186
#> 3 Adelie  Torgersen           40.3          18                 195
#> 4 Adelie  Torgersen           NA            NA                  NA
#> 5 Adelie  Torgersen           36.7          19.3               193
#> 6 Adelie  Torgersen           39.3          20.6               190
#> # ℹ 338 more rows
#> # ℹ 3 more variables: body_mass_g <int>, sex <fct>, year <int>
…
